{
  com.badlogic.gdx.graphics.g2d.BitmapFont: {
  default: { file: pixelMYZ.fnt }
},
  com.badlogic.gdx.scenes.scene2d.ui.TextButton$TextButtonStyle: {
  button: { down: buttonPressed, up: button, font:default },
},
  com.badlogic.gdx.scenes.scene2d.ui.Button$ButtonStyle: {
  play: { down: playPressed, up: play },
},
  com.badlogic.gdx.scenes.scene2d.ui.Button$ButtonStyle: {
  down: { down: down, up: down },
},
  com.badlogic.gdx.scenes.scene2d.ui.Button$ButtonStyle: {
  up: { down: up, up: up },
},
}