info face="Pixel MYZ Regular" size=64 bold=0 italic=0 charset="" unicode=0 stretchH=100 smooth=1 aa=1 padding=1,1,1,1 spacing=-2,-2
common lineHeight=52 base=40 scaleW=512 scaleH=512 pages=1 packed=0
page id=0 file="pixelMYZL.png"
chars count=96
char id=10      x=0    y=0    width=0    height=0    xoffset=0    yoffset=0    xadvance=0    page=0    chnl=0 
char id=32      x=0    y=0    width=0    height=0    xoffset=-1   yoffset=39   xadvance=8    page=0    chnl=0 
char id=33      x=90   y=0    width=6    height=38   xoffset=7    yoffset=3    xadvance=20   page=0    chnl=0 
char id=34      x=78   y=106  width=14   height=10   xoffset=-1   yoffset=3    xadvance=20   page=0    chnl=0 
char id=35      x=474  y=46   width=26   height=30   xoffset=-1   yoffset=11   xadvance=32   page=0    chnl=0 
char id=36      x=236  y=0    width=22   height=38   xoffset=-1   yoffset=7    xadvance=28   page=0    chnl=0 
char id=37      x=168  y=80   width=26   height=26   xoffset=-1   yoffset=15   xadvance=32   page=0    chnl=0 
char id=38      x=258  y=0    width=30   height=38   xoffset=-1   yoffset=3    xadvance=36   page=0    chnl=0 
char id=39      x=502  y=80   width=6    height=10   xoffset=-1   yoffset=3    xadvance=12   page=0    chnl=0 
char id=40      x=118  y=0    width=14   height=38   xoffset=-1   yoffset=3    xadvance=20   page=0    chnl=0 
char id=41      x=132  y=0    width=14   height=38   xoffset=-1   yoffset=3    xadvance=20   page=0    chnl=0 
char id=42      x=64   y=106  width=14   height=14   xoffset=-1   yoffset=3    xadvance=20   page=0    chnl=0 
char id=43      x=444  y=46   width=30   height=30   xoffset=-1   yoffset=11   xadvance=36   page=0    chnl=0 
char id=44      x=36   y=106  width=10   height=14   xoffset=-5   yoffset=35   xadvance=12   page=0    chnl=0 
char id=45      x=152  y=106  width=30   height=6    xoffset=-1   yoffset=23   xadvance=36   page=0    chnl=0 
char id=46      x=146  y=106  width=6    height=6    xoffset=-1   yoffset=35   xadvance=12   page=0    chnl=0 
char id=47      x=6    y=0    width=22   height=42   xoffset=-1   yoffset=7    xadvance=28   page=0    chnl=0 
char id=48      x=136  y=80   width=22   height=26   xoffset=-1   yoffset=15   xadvance=28   page=0    chnl=0 
char id=49      x=0    y=80   width=14   height=26   xoffset=-1   yoffset=15   xadvance=20   page=0    chnl=0 
char id=50      x=14   y=80   width=18   height=26   xoffset=-1   yoffset=15   xadvance=24   page=0    chnl=0 
char id=51      x=32   y=80   width=18   height=26   xoffset=-1   yoffset=15   xadvance=24   page=0    chnl=0 
char id=52      x=50   y=80   width=18   height=26   xoffset=-1   yoffset=15   xadvance=24   page=0    chnl=0 
char id=53      x=68   y=80   width=18   height=26   xoffset=-1   yoffset=15   xadvance=24   page=0    chnl=0 
char id=54      x=86   y=80   width=18   height=26   xoffset=-1   yoffset=15   xadvance=24   page=0    chnl=0 
char id=55      x=104  y=80   width=18   height=26   xoffset=-1   yoffset=15   xadvance=24   page=0    chnl=0 
char id=56      x=122  y=80   width=14   height=26   xoffset=-1   yoffset=15   xadvance=20   page=0    chnl=0 
char id=57      x=426  y=46   width=18   height=30   xoffset=-1   yoffset=11   xadvance=24   page=0    chnl=0 
char id=58      x=496  y=80   width=6    height=18   xoffset=-1   yoffset=19   xadvance=12   page=0    chnl=0 
char id=59      x=158  y=80   width=10   height=26   xoffset=-5   yoffset=19   xadvance=12   page=0    chnl=0 
char id=60      x=0    y=106  width=18   height=22   xoffset=-1   yoffset=19   xadvance=24   page=0    chnl=0 
char id=61      x=46   y=106  width=18   height=14   xoffset=-1   yoffset=23   xadvance=24   page=0    chnl=0 
char id=62      x=18   y=106  width=18   height=22   xoffset=-1   yoffset=19   xadvance=24   page=0    chnl=0 
char id=63      x=96   y=0    width=22   height=38   xoffset=-1   yoffset=3    xadvance=28   page=0    chnl=0 
char id=64      x=202  y=0    width=34   height=38   xoffset=-1   yoffset=3    xadvance=40   page=0    chnl=0 
char id=65      x=288  y=0    width=22   height=34   xoffset=-1   yoffset=7    xadvance=28   page=0    chnl=0 
char id=66      x=310  y=0    width=18   height=34   xoffset=-1   yoffset=7    xadvance=24   page=0    chnl=0 
char id=67      x=328  y=0    width=22   height=34   xoffset=-1   yoffset=7    xadvance=28   page=0    chnl=0 
char id=68      x=350  y=0    width=26   height=34   xoffset=-1   yoffset=7    xadvance=32   page=0    chnl=0 
char id=69      x=376  y=0    width=18   height=34   xoffset=-1   yoffset=7    xadvance=24   page=0    chnl=0 
char id=70      x=394  y=0    width=18   height=34   xoffset=-1   yoffset=7    xadvance=24   page=0    chnl=0 
char id=71      x=412  y=0    width=22   height=34   xoffset=-1   yoffset=7    xadvance=28   page=0    chnl=0 
char id=72      x=434  y=0    width=22   height=34   xoffset=-1   yoffset=7    xadvance=28   page=0    chnl=0 
char id=73      x=456  y=0    width=6    height=34   xoffset=-1   yoffset=7    xadvance=12   page=0    chnl=0 
char id=74      x=462  y=0    width=14   height=34   xoffset=-1   yoffset=7    xadvance=20   page=0    chnl=0 
char id=75      x=476  y=0    width=14   height=34   xoffset=-1   yoffset=7    xadvance=20   page=0    chnl=0 
char id=76      x=490  y=0    width=18   height=34   xoffset=-1   yoffset=7    xadvance=24   page=0    chnl=0 
char id=77      x=0    y=46   width=22   height=34   xoffset=-1   yoffset=7    xadvance=28   page=0    chnl=0 
char id=78      x=22   y=46   width=26   height=34   xoffset=-1   yoffset=7    xadvance=32   page=0    chnl=0 
char id=79      x=48   y=46   width=18   height=34   xoffset=-1   yoffset=7    xadvance=24   page=0    chnl=0 
char id=80      x=66   y=46   width=18   height=34   xoffset=-1   yoffset=7    xadvance=24   page=0    chnl=0 
char id=81      x=50   y=0    width=30   height=38   xoffset=-1   yoffset=7    xadvance=36   page=0    chnl=0 
char id=82      x=84   y=46   width=18   height=34   xoffset=-1   yoffset=7    xadvance=24   page=0    chnl=0 
char id=83      x=102  y=46   width=18   height=34   xoffset=-1   yoffset=7    xadvance=24   page=0    chnl=0 
char id=84      x=120  y=46   width=22   height=34   xoffset=-1   yoffset=7    xadvance=28   page=0    chnl=0 
char id=85      x=142  y=46   width=22   height=34   xoffset=-1   yoffset=7    xadvance=28   page=0    chnl=0 
char id=86      x=164  y=46   width=22   height=34   xoffset=-1   yoffset=7    xadvance=28   page=0    chnl=0 
char id=87      x=186  y=46   width=30   height=34   xoffset=-1   yoffset=7    xadvance=36   page=0    chnl=0 
char id=88      x=216  y=46   width=22   height=34   xoffset=-1   yoffset=7    xadvance=28   page=0    chnl=0 
char id=89      x=238  y=46   width=22   height=34   xoffset=-1   yoffset=7    xadvance=28   page=0    chnl=0 
char id=90      x=260  y=46   width=22   height=34   xoffset=-1   yoffset=7    xadvance=28   page=0    chnl=0 
char id=91      x=146  y=0    width=14   height=38   xoffset=-1   yoffset=3    xadvance=20   page=0    chnl=0 
char id=92      x=28   y=0    width=22   height=42   xoffset=-1   yoffset=7    xadvance=28   page=0    chnl=0 
char id=93      x=160  y=0    width=14   height=38   xoffset=-1   yoffset=3    xadvance=20   page=0    chnl=0 
char id=94      x=102  y=106  width=14   height=10   xoffset=-1   yoffset=7    xadvance=20   page=0    chnl=0 
char id=95      x=182  y=106  width=26   height=6    xoffset=-1   yoffset=39   xadvance=32   page=0    chnl=0 
char id=96      x=92   y=106  width=10   height=10   xoffset=-5   yoffset=3    xadvance=12   page=0    chnl=0 
char id=97      x=194  y=80   width=22   height=22   xoffset=-1   yoffset=19   xadvance=28   page=0    chnl=0 
char id=98      x=354  y=46   width=18   height=30   xoffset=-1   yoffset=11   xadvance=24   page=0    chnl=0 
char id=99      x=216  y=80   width=14   height=22   xoffset=-1   yoffset=19   xadvance=20   page=0    chnl=0 
char id=100     x=372  y=46   width=18   height=30   xoffset=-1   yoffset=11   xadvance=24   page=0    chnl=0 
char id=101     x=230  y=80   width=18   height=22   xoffset=-1   yoffset=19   xadvance=24   page=0    chnl=0 
char id=102     x=282  y=46   width=18   height=34   xoffset=-1   yoffset=7    xadvance=24   page=0    chnl=0 
char id=103     x=390  y=46   width=18   height=30   xoffset=-1   yoffset=23   xadvance=24   page=0    chnl=0 
char id=104     x=408  y=46   width=18   height=30   xoffset=-1   yoffset=11   xadvance=24   page=0    chnl=0 
char id=105     x=500  y=46   width=6    height=26   xoffset=-1   yoffset=15   xadvance=12   page=0    chnl=0 
char id=106     x=80   y=0    width=10   height=38   xoffset=-1   yoffset=15   xadvance=16   page=0    chnl=0 
char id=107     x=248  y=80   width=14   height=22   xoffset=-1   yoffset=19   xadvance=20   page=0    chnl=0 
char id=108     x=456  y=0    width=6    height=34   xoffset=-1   yoffset=7    xadvance=12   page=0    chnl=0 
char id=109     x=262  y=80   width=30   height=22   xoffset=-1   yoffset=19   xadvance=36   page=0    chnl=0 
char id=110     x=292  y=80   width=18   height=22   xoffset=-1   yoffset=19   xadvance=24   page=0    chnl=0 
char id=111     x=310  y=80   width=18   height=22   xoffset=-1   yoffset=19   xadvance=24   page=0    chnl=0 
char id=112     x=300  y=46   width=18   height=34   xoffset=-1   yoffset=19   xadvance=24   page=0    chnl=0 
char id=113     x=318  y=46   width=18   height=34   xoffset=-1   yoffset=19   xadvance=24   page=0    chnl=0 
char id=114     x=328  y=80   width=18   height=22   xoffset=-1   yoffset=19   xadvance=24   page=0    chnl=0 
char id=115     x=346  y=80   width=18   height=22   xoffset=-1   yoffset=19   xadvance=24   page=0    chnl=0 
char id=116     x=336  y=46   width=18   height=34   xoffset=-1   yoffset=7    xadvance=24   page=0    chnl=0 
char id=117     x=364  y=80   width=18   height=22   xoffset=-1   yoffset=19   xadvance=24   page=0    chnl=0 
char id=118     x=382  y=80   width=22   height=22   xoffset=-1   yoffset=19   xadvance=28   page=0    chnl=0 
char id=119     x=404  y=80   width=30   height=22   xoffset=-1   yoffset=19   xadvance=36   page=0    chnl=0 
char id=120     x=434  y=80   width=22   height=22   xoffset=-1   yoffset=19   xadvance=28   page=0    chnl=0 
char id=121     x=456  y=80   width=22   height=22   xoffset=-1   yoffset=19   xadvance=28   page=0    chnl=0 
char id=122     x=478  y=80   width=18   height=22   xoffset=-1   yoffset=19   xadvance=24   page=0    chnl=0 
char id=123     x=174  y=0    width=14   height=38   xoffset=-1   yoffset=3    xadvance=20   page=0    chnl=0 
char id=124     x=0    y=0    width=6    height=46   xoffset=-1   yoffset=-1   xadvance=12   page=0    chnl=0 
char id=125     x=188  y=0    width=14   height=38   xoffset=-1   yoffset=3    xadvance=20   page=0    chnl=0 
char id=126     x=116  y=106  width=30   height=10   xoffset=-1   yoffset=23   xadvance=36   page=0    chnl=0 
kernings count=0
